('C:\\Users\\Pato\\PycharmProjects\\sorsol\\dist\\sorsol.exe',
 False,
 False,
 False,
 'icon.ico',
 None,
 False,
 False,
 <PyInstaller.utils.win32.winmanifest.Manifest object at 0x02C1D270>,
 True,
 'sorsol.pkg',
 [('out00-PYZ.pyz', 'C:\\Users\\Pato\\PycharmProjects\\sorsol\\build\\sorsol\\out00-PYZ.pyz', 'PYZ'), ('struct', 'c:\\python27\\lib\\struct.pyc', 'PYMODULE'), ('pyimod01_os_path', 'c:\\python27\\lib\\site-packages\\PyInstaller\\loader\\pyimod01_os_path.pyc', 'PYMODULE'), ('pyimod02_archive', 'c:\\python27\\lib\\site-packages\\PyInstaller\\loader\\pyimod02_archive.pyc', 'PYMODULE'), ('pyimod03_importers', 'c:\\python27\\lib\\site-packages\\PyInstaller\\loader\\pyimod03_importers.pyc', 'PYMODULE'), ('pyiboot01_bootstrap', 'c:\\python27\\lib\\site-packages\\PyInstaller\\loader\\pyiboot01_bootstrap.py', 'PYSOURCE'), ('sorsol', 'C:\\Users\\Pato\\PycharmProjects\\sorsol\\sorsol.py', 'PYSOURCE'), (u'microsoft.vc90.crt.manifest', u'C:\\Windows\\WinSxS\\Manifests\\x86_microsoft.vc90.crt_1fc8b3b9a1e18e3b_9.0.30729.9158_none_5091b51ebcb97cdc.manifest', 'BINARY'), (u'msvcr90.dll', u'C:\\Windows\\WinSxS\\x86_microsoft.vc90.crt_1fc8b3b9a1e18e3b_9.0.30729.9158_none_5091b51ebcb97cdc\\msvcr90.dll', 'BINARY'), (u'msvcp90.dll', u'C:\\Windows\\WinSxS\\x86_microsoft.vc90.crt_1fc8b3b9a1e18e3b_9.0.30729.9158_none_5091b51ebcb97cdc\\msvcp90.dll', 'BINARY'), (u'msvcm90.dll', u'C:\\Windows\\WinSxS\\x86_microsoft.vc90.crt_1fc8b3b9a1e18e3b_9.0.30729.9158_none_5091b51ebcb97cdc\\msvcm90.dll', 'BINARY'), ('python27.dll', 'C:\\Windows\\system32\\python27.dll', 'BINARY'), ('unicodedata', 'c:\\python27\\DLLs\\unicodedata.pyd', 'EXTENSION'), ('bz2', 'c:\\python27\\DLLs\\bz2.pyd', 'EXTENSION'), ('wx._misc_', 'c:\\python27\\lib\\site-packages\\wx-3.0-msw\\wx\\_misc_.pyd', 'EXTENSION'), ('wx._controls_', 'c:\\python27\\lib\\site-packages\\wx-3.0-msw\\wx\\_controls_.pyd', 'EXTENSION'), ('wx._gdi_', 'c:\\python27\\lib\\site-packages\\wx-3.0-msw\\wx\\_gdi_.pyd', 'EXTENSION'), ('wx._core_', 'c:\\python27\\lib\\site-packages\\wx-3.0-msw\\wx\\_core_.pyd', 'EXTENSION'), ('wx._windows_', 'c:\\python27\\lib\\site-packages\\wx-3.0-msw\\wx\\_windows_.pyd', 'EXTENSION'), ('wx._html', 'c:\\python27\\lib\\site-packages\\wx-3.0-msw\\wx\\_html.pyd', 'EXTENSION'), ('select', 'c:\\python27\\DLLs\\select.pyd', 'EXTENSION'), ('_hashlib', 'c:\\python27\\DLLs\\_hashlib.pyd', 'EXTENSION'), ('wxmsw30u_core_vc90.dll', 'c:\\python27\\lib\\site-packages\\wx-3.0-msw\\wx\\wxmsw30u_core_vc90.dll', 'BINARY'), ('wxmsw30u_adv_vc90.dll', 'c:\\python27\\lib\\site-packages\\wx-3.0-msw\\wx\\wxmsw30u_adv_vc90.dll', 'BINARY'), ('wxbase30u_vc90.dll', 'c:\\python27\\lib\\site-packages\\wx-3.0-msw\\wx\\wxbase30u_vc90.dll', 'BINARY'), ('wxbase30u_net_vc90.dll', 'c:\\python27\\lib\\site-packages\\wx-3.0-msw\\wx\\wxbase30u_net_vc90.dll', 'BINARY'), ('wxmsw30u_html_vc90.dll', 'c:\\python27\\lib\\site-packages\\wx-3.0-msw\\wx\\wxmsw30u_html_vc90.dll', 'BINARY'), ('sorsol.exe.manifest', 'C:\\Users\\Pato\\PycharmProjects\\sorsol\\build\\sorsol\\sorsol.exe.manifest', 'BINARY'), ('pyi-windows-manifest-filename sorsol.exe.manifest', '', 'OPTION')],
 [],
 None,
 False,
 1447100836L,
 [('runw.exe', 'c:\\python27\\lib\\site-packages\\PyInstaller\\bootloader\\Windows-32bit\\runw.exe', 'EXECUTABLE')])
